LAB08/simulation/qsim/TrafficLights.msim.vcd
$comment
	File created using the following command:
		vcd file TrafficLights.msim.vcd -direction
$end
$date
	Thu Jan 25 02:03:59 2024
$end
$version
	ModelSim Version 10.1d
$end
$timescale
	1ps
$end
$scope module TrafficLights_vlg_vec_tst $end
$var reg 1 ! clock $end
$var wire 1 " green $end
$var wire 1 # red $end
$var wire 1 $ yellow $end
$var wire 1 % sampler $end
$scope module i1 $end
$var wire 1 & gnd $end
$var wire 1 ' vcc $end
$var wire 1 ( unknown $end
$var tri1 1 ) devclrn $end
$var tri1 1 * devpor $end
$var tri1 1 + devoe $end
$var wire 1 , inst8|FF0~q $end
$var wire 1 - inst8|FF1~q $end
$var wire 1 . inst7|FF2~q $end
$var wire 1 / inst15|AND1~0_combout $end
$var wire 1 0 inst15|XOR0~combout $end
$var wire 1 1 inst7|FF2~0_combout $end
$var wire 1 2 green~output_o $end
$var wire 1 3 red~output_o $end
$var wire 1 4 yellow~output_o $end
$var wire 1 5 clock~input_o $end
$var wire 1 6 clock~inputclkctrl_outclk $end
$var wire 1 7 inst7|FF0~0_combout $end
$var wire 1 8 inst15|inst1|FF1~0_combout $end
$var wire 1 9 inst7|FF0~q $end
$var wire 1 : inst7|FF1~0_combout $end
$var wire 1 ; inst7|FF1~q $end
$var wire 1 < inst7|FF3~0_combout $end
$var wire 1 = inst7|FF3~q $end
$var wire 1 > inst15|inst1|FF1~1_combout $end
$var wire 1 ? inst15|inst1|FF1~2_combout $end
$var wire 1 @ inst15|inst1|FF1~q $end
$var wire 1 A inst15|inst1|FF0~2_combout $end
$var wire 1 B inst15|inst1|FF0~3_combout $end
$var wire 1 C inst15|inst1|FF0~q $end
$var wire 1 D inst12|inst5|inst3~combout $end
$var wire 1 E inst12|FF0~q $end
$var wire 1 F inst12|inst3|inst3~combout $end
$var wire 1 G inst12|FF2~q $end
$var wire 1 H inst12|inst4|inst3~0_combout $end
$var wire 1 I inst12|FF1~q $end
$upscope $end
$upscope $end
$enddefinitions $end
#0
$dumpvars
0!
0"
0#
0$
x%
0&
1'
x(
1)
1*
1+
0,
0-
0.
1/
00
01
02
03
04
05
06
17
18
09
0:
0;
0<
0=
1>
0?
0@
0A
0B
0C
0D
0E
0F
0G
0H
0I
$end
#10000
1!
15
16
0%
1,
1B
#20000
0!
05
06
1%
#30000
1!
15
16
0%
1C
1D
0B
1A
08
10
0/
1B
#40000
0!
05
06
1%
#50000
1!
15
16
0%
19
1-
0,
1E
1:
07
12
1"
#60000
0!
05
06
1%
#70000
1!
15
16
0%
1;
09
17
#80000
0!
05
06
1%
#90000
1!
15
16
0%
19
0:
07
11
#100000
0!
05
06
1%
#110000
1!
15
16
0%
0;
09
1.
17
#120000
0!
05
06
1%
#130000
1!
15
16
0%
19
1:
07
#140000
0!
05
06
1%
#150000
1!
15
16
0%
1;
09
17
#160000
0!
05
06
1%
#170000
1!
15
16
0%
19
1<
0:
07
01
#180000
0!
05
06
1%
#190000
1!
15
16
0%
1=
0;
09
0.
17
#200000
0!
05
06
1%
#210000
1!
15
16
0%
19
1:
07
#220000
0!
05
06
1%
#230000
1!
15
16
0%
1;
09
0A
0>
17
0B
#240000
0!
05
06
1%
#250000
1!
15
16
0%
0C
19
1?
18
00
1/
0:
07
11
09
0;
0=
1>
0<
17
01
#260000
0!
05
06
1%
#270000
1!
15
16
0%
1@
0-
1,
1H
0D
08
10
#280000
0!
05
06
1%
#290000
1!
15
16
0%
19
1-
1I
0E
0>
1:
07
14
02
1$
0"
0?
#300000
0!
05
06
1%
#310000
1!
15
16
0%
0@
1;
09
1B
1?
18
00
1>
17
0;
0:
#320000
0!
05
06
1%
#330000
1!
15
16
0%
1C
1@
0-
0H
1F
0B
1A
08
1B
#340000
0!
05
06
1%
#350000
1!
15
16
0%
19
0I
1G
1:
07
04
13
0$
1#
#360000
0!
05
06
1%
#370000
1!
15
16
0%
1;
09
17
#380000
0!
05
06
1%
#390000
1!
15
16
0%
19
0:
07
11
#400000
0!
05
06
1%
#410000
1!
15
16
0%
0;
09
1.
17
#420000
0!
05
06
1%
#430000
1!
15
16
0%
19
1:
07
#440000
0!
05
06
1%
#450000
1!
15
16
0%
1;
09
17
#460000
0!
05
06
1%
#470000
1!
15
16
0%
19
1<
0:
07
01
#480000
0!
05
06
1%
#490000
1!
15
16
0%
1=
0;
09
0.
17
#500000
0!
05
06
1%
#510000
1!
15
16
0%
19
1:
07
#520000
0!
05
06
1%
#530000
1!
15
16
0%
1;
09
0A
0>
17
0B
0?
#540000
0!
05
06
1%
#550000
1!
15
16
0%
0C
0@
19
1B
18
0:
07
11
09
0;
0=
1>
0<
17
01
#560000
0!
05
06
1%
#570000
1!
15
16
0%
1C
0F
1D
0B
1A
08
10
0/
1B
#580000
0!
05
06
1%
#590000
1!
15
16
0%
19
1-
0,
0G
1E
1:
07
03
12
0#
1"
#600000
0!
05
06
1%
#610000
1!
15
16
0%
1;
09
17
#620000
0!
05
06
1%
#630000
1!
15
16
0%
19
0:
07
11
#640000
0!
05
06
1%
#650000
1!
15
16
0%
0;
09
1.
17
#660000
0!
05
06
1%
#670000
1!
15
16
0%
19
1:
07
#680000
0!
05
06
1%
#690000
1!
15
16
0%
1;
09
17
#700000
0!
05
06
1%
#710000
1!
15
16
0%
19
1<
0:
07
01
#720000
0!
05
06
1%
#730000
1!
15
16
0%
1=
0;
09
0.
17
#740000
0!
05
06
1%
#750000
1!
15
16
0%
19
1:
07
#760000
0!
05
06
1%
#770000
1!
15
16
0%
1;
09
0A
0>
17
0B
#780000
0!
05
06
1%
#790000
1!
15
16
0%
0C
19
1?
18
00
1/
0:
07
11
09
0;
0=
1>
0<
17
01
#800000
0!
05
06
1%
#810000
1!
15
16
0%
1@
0-
1,
1H
0D
08
10
#820000
0!
05
06
1%
#830000
1!
15
16
0%
19
1-
1I
0E
0>
1:
07
14
02
1$
0"
0?
#840000
0!
05
06
1%
#850000
1!
15
16
0%
0@
1;
09
1B
1?
18
00
1>
17
0;
0:
#860000
0!
05
06
1%
#870000
1!
15
16
0%
1C
1@
0-
0H
1F
0B
1A
08
1B
#880000
0!
05
06
1%
#890000
1!
15
16
0%
19
0I
1G
1:
07
04
13
0$
1#
#900000
0!
05
06
1%
#910000
1!
15
16
0%
1;
09
17
#920000
0!
05
06
1%
#930000
1!
15
16
0%
19
0:
07
11
#940000
0!
05
06
1%
#950000
1!
15
16
0%
0;
09
1.
17
#960000
0!
05
06
1%
#970000
1!
15
16
0%
19
1:
07
#980000
0!
05
06
1%
#990000
1!
15
16
0%
1;
09
17
