LAB04/simulation/qsim/ULA.msim.vcd
$comment
	File created using the following command:
		vcd file ULA.msim.vcd -direction
$end
$date
	Wed Dec 06 20:20:57 2023
$end
$version
	ModelSim Version 10.1d
$end
$timescale
	1ps
$end
$scope module ULA_vlg_vec_tst $end
$var reg 4 ! a [3:0] $end
$var reg 4 " b [3:0] $end
$var reg 2 # s [1:0] $end
$var wire 1 $ flag_n $end
$var wire 1 % flag_z $end
$var wire 1 & z [3] $end
$var wire 1 ' z [2] $end
$var wire 1 ( z [1] $end
$var wire 1 ) z [0] $end
$var wire 1 * sampler $end
$scope module i1 $end
$var wire 1 + gnd $end
$var wire 1 , vcc $end
$var wire 1 - unknown $end
$var tri1 1 . devclrn $end
$var tri1 1 / devpor $end
$var tri1 1 0 devoe $end
$var wire 1 1 a[2]~input_o $end
$var wire 1 2 b[3]~input_o $end
$var wire 1 3 flag_n~output_o $end
$var wire 1 4 z[3]~output_o $end
$var wire 1 5 z[2]~output_o $end
$var wire 1 6 z[1]~output_o $end
$var wire 1 7 z[0]~output_o $end
$var wire 1 8 flag_z~output_o $end
$var wire 1 9 s[1]~input_o $end
$var wire 1 : s[0]~input_o $end
$var wire 1 ; b[2]~input_o $end
$var wire 1 < a[0]~input_o $end
$var wire 1 = a[1]~input_o $end
$var wire 1 > b[1]~input_o $end
$var wire 1 ? inst|inst1|inst5~0_combout $end
$var wire 1 @ inst5|inst3|inst3~2_combout $end
$var wire 1 A a[3]~input_o $end
$var wire 1 B inst5|inst3|inst3~3_combout $end
$var wire 1 C inst5|inst3|inst3~4_combout $end
$var wire 1 D inst5|inst2|inst3~2_combout $end
$var wire 1 E inst5|inst2|inst3~3_combout $end
$var wire 1 F b[0]~input_o $end
$var wire 1 G inst5|inst1|inst3~0_combout $end
$var wire 1 H inst5|inst1|inst3~1_combout $end
$var wire 1 I inst5|inst1|inst3~2_combout $end
$var wire 1 J inst5|inst|inst3~0_combout $end
$var wire 1 K inst8~0_combout $end
$upscope $end
$upscope $end
$enddefinitions $end
#0
$dumpvars
b0 !
b1 "
b0 #
0$
0%
1)
0(
0'
0&
x*
0+
1,
x-
1.
1/
10
01
02
03
04
05
06
17
08
09
0:
0;
0<
0=
0>
0?
0@
0A
0B
0C
0D
0E
1F
0G
0H
0I
1J
1K
$end
#50000
b1 !
1<
0*
0J
1I
07
16
0)
1(
#100000
b11 !
b10 !
0<
1=
1*
1G
1J
0I
17
06
1)
0(
1I
16
1(
#150000
b11 !
1<
0*
1?
0J
0I
0K
07
06
0)
0(
1E
1K
18
15
1%
1'
08
0%
#200000
b111 !
b101 !
b100 !
0<
0=
11
1*
0?
0G
1D
1@
1J
1I
0@
17
16
1)
1(
0I
1C
06
14
13
0(
1&
1$
0C
04
03
0&
0$
#250000
b101 !
1<
0*
0J
1I
07
16
0)
1(
#300000
b111 !
b110 !
0<
1=
1*
1G
1J
0I
17
06
1)
0(
1I
16
1(
#350000
b111 !
1<
0*
1?
0J
0I
1@
07
06
0)
0(
0E
0K
05
0'
1C
1K
18
14
13
1%
1&
1$
08
0%
#400000
b1111 !
b1011 !
b1001 !
b1000 !
0<
0=
01
1A
1*
0?
0G
0D
0@
1B
1J
1I
17
16
1)
1(
0I
06
0(
#450000
b1001 !
1<
0*
0J
1I
07
16
0)
1(
#500000
b1011 !
b1010 !
0<
1=
1*
1G
1J
0I
17
06
1)
0(
1I
16
1(
#550000
b1011 !
1<
0*
1?
0J
0I
07
06
0)
0(
1E
15
1'
#600000
b1111 !
b1101 !
b1100 !
0<
0=
11
1*
0?
0G
1D
1@
1J
1I
0@
17
16
1)
1(
0I
0C
06
04
03
0(
0&
0$
1C
14
13
1&
1$
#650000
b1101 !
1<
0*
0J
1I
07
16
0)
1(
#700000
b1111 !
b1110 !
0<
1=
1*
1G
1J
0I
17
06
1)
0(
1I
16
1(
#750000
b1111 !
1<
0*
1?
0J
0I
1@
07
06
0)
0(
0E
05
0'
0C
0K
04
03
0&
0$
18
1%
#800000
b111 !
b11 !
b1 !
b0 !
0<
0=
01
0A
1*
0?
0G
0D
0@
0B
1J
1I
1K
17
16
1)
1(
0I
08
06
0%
0(
#850000
b1 !
1<
0*
0J
1I
07
16
0)
1(
#900000
b11 !
b10 !
0<
1=
1*
1G
1J
0I
17
06
1)
0(
1I
16
1(
#950000
b11 !
1<
0*
1?
0J
0I
0K
07
06
0)
0(
1E
1K
18
15
1%
1'
08
0%
