LAB04/simulation/qsim/ULA_DISPLAY.msim.vcd
$comment
	File created using the following command:
		vcd file ULA_DISPLAY.msim.vcd -direction
$end
$date
	Wed Dec 06 21:00:36 2023
$end
$version
	ModelSim Version 10.1d
$end
$timescale
	1ps
$end
$scope module ULA_DISPLAY_vlg_vec_tst $end
$var reg 4 ! a [3:0] $end
$var reg 4 " b [3:0] $end
$var reg 2 # s [1:0] $end
$var wire 1 $ d [6] $end
$var wire 1 % d [5] $end
$var wire 1 & d [4] $end
$var wire 1 ' d [3] $end
$var wire 1 ( d [2] $end
$var wire 1 ) d [1] $end
$var wire 1 * d [0] $end
$var wire 1 + n $end
$var wire 1 , z $end
$var wire 1 - sampler $end
$scope module i1 $end
$var wire 1 . gnd $end
$var wire 1 / vcc $end
$var wire 1 0 unknown $end
$var tri1 1 1 devclrn $end
$var tri1 1 2 devpor $end
$var tri1 1 3 devoe $end
$var wire 1 4 inst|inst5|inst1|inst3~0_combout $end
$var wire 1 5 inst|inst5|inst2|inst3~2_combout $end
$var wire 1 6 b[1]~input_o $end
$var wire 1 7 n~output_o $end
$var wire 1 8 z~output_o $end
$var wire 1 9 d[6]~output_o $end
$var wire 1 : d[5]~output_o $end
$var wire 1 ; d[4]~output_o $end
$var wire 1 < d[3]~output_o $end
$var wire 1 = d[2]~output_o $end
$var wire 1 > d[1]~output_o $end
$var wire 1 ? d[0]~output_o $end
$var wire 1 @ s[1]~input_o $end
$var wire 1 A s[0]~input_o $end
$var wire 1 B a[2]~input_o $end
$var wire 1 C b[2]~input_o $end
$var wire 1 D b[0]~input_o $end
$var wire 1 E a[0]~input_o $end
$var wire 1 F a[1]~input_o $end
$var wire 1 G inst|inst|inst1|inst5~0_combout $end
$var wire 1 H inst|inst5|inst3|inst3~2_combout $end
$var wire 1 I a[3]~input_o $end
$var wire 1 J b[3]~input_o $end
$var wire 1 K inst|inst5|inst3|inst3~3_combout $end
$var wire 1 L inst|inst5|inst3|inst3~4_combout $end
$var wire 1 M inst|inst5|inst1|inst3~1_combout $end
$var wire 1 N inst|inst5|inst1|inst3~2_combout $end
$var wire 1 O inst|inst5|inst2|inst3~3_combout $end
$var wire 1 P inst|inst5|inst|inst3~0_combout $end
$var wire 1 Q inst|inst8~combout $end
$var wire 1 R inst2|inst6|inst1~0_combout $end
$var wire 1 S inst2|inst5|inst14~0_combout $end
$var wire 1 T inst2|inst4|inst7~0_combout $end
$var wire 1 U inst2|inst3|inst7~0_combout $end
$var wire 1 V inst2|inst2|inst1~0_combout $end
$var wire 1 W inst2|inst1|inst3~0_combout $end
$var wire 1 X inst2|inst|inst4~0_combout $end
$upscope $end
$upscope $end
$enddefinitions $end
#0
$dumpvars
b0 !
b1 "
b0 #
1*
0)
0(
1'
1&
1%
1$
0+
0,
x-
0.
1/
x0
11
12
13
04
05
06
07
08
19
1:
1;
1<
0=
0>
1?
0@
0A
0B
0C
1D
0E
0F
0G
0H
0I
0J
0K
0L
0M
0N
0O
1P
1Q
1R
1S
1T
1U
0V
0W
1X
$end
#50000
b1 !
1E
0-
0P
1N
0X
1V
0U
0T
0R
0?
1=
0<
0;
09
0*
1(
0'
0&
0$
#100000
b11 !
b10 !
0E
1F
1-
1P
0N
14
1N
1X
0V
1U
1T
1R
1?
0=
1<
1;
19
1*
0(
1'
1&
1$
0X
0U
0R
0?
0<
09
0*
0'
0$
#150000
b11 !
1E
0-
0P
0N
1G
0Q
1O
0T
0S
1R
1Q
18
0;
0:
19
1,
0&
0%
1$
1X
1U
1T
0R
08
1?
1<
1;
09
0,
1*
1'
1&
0$
#200000
b111 !
b101 !
b100 !
0E
0F
1B
1-
1P
1N
0G
04
1H
15
0H
0N
0X
1S
1R
1L
0?
1:
19
17
0*
1%
1$
1+
0L
1X
0U
0T
0R
07
1?
0<
0;
09
0+
1*
0'
0&
0$
0X
1W
1T
0S
0?
1>
1;
0:
0*
1)
1&
0%
#250000
b11 "
b10 "
b1 #
b101 !
1E
1A
0D
16
0-
0P
1M
05
0O
1X
0W
1U
0Q
1?
0>
1<
1*
0)
1'
0X
0U
0T
1R
18
0?
0<
0;
19
1,
0*
0'
0&
1$
#300000
b111 !
b110 !
0E
1F
1-
1G
14
1H
1N
1Q
1V
1S
0R
08
1=
1:
09
0,
1(
1%
0$
#350000
b111 !
1E
0-
#400000
b1111 !
b1011 !
b1001 !
b1000 !
0E
0F
0B
1I
1-
0G
04
0H
0N
0Q
0V
0S
1R
18
0=
0:
19
1,
0(
0%
1$
#450000
b1001 !
1E
0-
#500000
b11 #
b11 "
b10 #
b1011 !
b1010 !
0E
1F
1D
0A
1@
1-
1P
1G
14
1K
1Q
1N
1X
1U
1T
1S
1L
08
1?
1<
1;
1:
17
0,
1*
1'
1&
1%
1+
1W
0U
0T
0S
0R
1>
0<
0;
0:
09
1)
0'
0&
0%
0$
#550000
b1011 !
1E
0-
#600000
b1111 !
b1101 !
b1100 !
0E
0F
1B
1-
0G
1H
15
1O
0H
0X
1V
1U
0?
1=
1<
0*
1(
1'
#650000
b1101 !
1E
0-
1G
1H
#700000
b1111 !
b1110 !
0E
1F
1-
#750000
b111 "
b101 "
b100 "
b11 #
b1111 !
1E
1A
0D
06
1C
0-
0P
0G
0K
05
04
0O
0N
0U
0L
0Q
0<
07
0'
0+
0W
0V
1R
18
0>
0=
19
1,
0)
0(
1$
#800000
b111 !
b11 !
b1 !
b0 !
0E
0F
0B
0I
1-
1P
14
0H
15
1K
1Q
1N
1O
1X
1U
1T
1S
1L
08
1?
1<
1;
1:
17
0,
1*
1'
1&
1%
1+
0X
1W
1V
0T
0S
0R
0?
1>
1=
0;
0:
09
0*
1)
1(
0&
0%
0$
#850000
b1 !
1E
0-
0P
0U
0<
0'
#900000
b11 !
b10 !
0E
1F
1-
1P
04
0N
1U
1<
1'
1X
0W
0V
0U
1S
1?
0>
0=
0<
1:
1*
0)
0(
0'
1%
#950000
b11 !
1E
0-
0P
0X
1W
1V
0S
1R
0?
1>
1=
0:
19
0*
1)
1(
0%
1$
