Trabalho Final/simulation/qsim/Trabalho_Final.msim.vcd
$comment
	File created using the following command:
		vcd file Trabalho_Final.msim.vcd -direction
$end
$date
	Mon Feb 05 22:55:30 2024
$end
$version
	ModelSim Version 10.1d
$end
$timescale
	1ps
$end
$scope module Trabalho_Final_vlg_vec_tst $end
$var reg 1 ! botao_passo $end
$var reg 1 " clk_in $end
$var reg 1 # rst $end
$var reg 1 $ switch $end
$var wire 1 % display [13] $end
$var wire 1 & display [12] $end
$var wire 1 ' display [11] $end
$var wire 1 ( display [10] $end
$var wire 1 ) display [9] $end
$var wire 1 * display [8] $end
$var wire 1 + display [7] $end
$var wire 1 , display [6] $end
$var wire 1 - display [5] $end
$var wire 1 . display [4] $end
$var wire 1 / display [3] $end
$var wire 1 0 display [2] $end
$var wire 1 1 display [1] $end
$var wire 1 2 display [0] $end
$var wire 1 3 displayPC [13] $end
$var wire 1 4 displayPC [12] $end
$var wire 1 5 displayPC [11] $end
$var wire 1 6 displayPC [10] $end
$var wire 1 7 displayPC [9] $end
$var wire 1 8 displayPC [8] $end
$var wire 1 9 displayPC [7] $end
$var wire 1 : displayPC [6] $end
$var wire 1 ; displayPC [5] $end
$var wire 1 < displayPC [4] $end
$var wire 1 = displayPC [3] $end
$var wire 1 > displayPC [2] $end
$var wire 1 ? displayPC [1] $end
$var wire 1 @ displayPC [0] $end
$var wire 1 A HLT $end
$var wire 1 B SAIDA_ACUMULADOR [7] $end
$var wire 1 C SAIDA_ACUMULADOR [6] $end
$var wire 1 D SAIDA_ACUMULADOR [5] $end
$var wire 1 E SAIDA_ACUMULADOR [4] $end
$var wire 1 F SAIDA_ACUMULADOR [3] $end
$var wire 1 G SAIDA_ACUMULADOR [2] $end
$var wire 1 H SAIDA_ACUMULADOR [1] $end
$var wire 1 I SAIDA_ACUMULADOR [0] $end
$var wire 1 J saida_negativo $end
$var wire 1 K SAIDA_PC [7] $end
$var wire 1 L SAIDA_PC [6] $end
$var wire 1 M SAIDA_PC [5] $end
$var wire 1 N SAIDA_PC [4] $end
$var wire 1 O SAIDA_PC [3] $end
$var wire 1 P SAIDA_PC [2] $end
$var wire 1 Q SAIDA_PC [1] $end
$var wire 1 R SAIDA_PC [0] $end
$var wire 1 S saida_ri [7] $end
$var wire 1 T saida_ri [6] $end
$var wire 1 U saida_ri [5] $end
$var wire 1 V saida_ri [4] $end
$var wire 1 W saida_ri [3] $end
$var wire 1 X saida_ri [2] $end
$var wire 1 Y saida_ri [1] $end
$var wire 1 Z saida_ri [0] $end
$var wire 1 [ saida_zero $end
$var wire 1 \ sampler $end
$scope module i1 $end
$var wire 1 ] gnd $end
$var wire 1 ^ vcc $end
$var wire 1 _ unknown $end
$var tri1 1 ` devclrn $end
$var tri1 1 a devpor $end
$var tri1 1 b devoe $end
$var wire 1 c inst13|inst|inst3|inst5~0_combout $end
$var wire 1 d inst13|inst|inst7|inst2~0_combout $end
$var wire 1 e inst13|inst7|inst2|inst9|inst2~0_combout $end
$var wire 1 f inst4|inst70|inst5|inst8~1_combout $end
$var wire 1 g inst1|inst58|inst8~0_combout $end
$var wire 1 h inst1|inst50|inst8~0_combout $end
$var wire 1 i inst1|inst5|inst8~0_combout $end
$var wire 1 j inst13|inst7|inst2|inst8|inst2~0_combout $end
$var wire 1 k inst13|inst7|inst2|inst7|inst2~0_combout $end
$var wire 1 l inst13|inst7|inst4|inst7|inst2~0_combout $end
$var wire 1 m inst13|inst|inst3|inst2~0_combout $end
$var wire 1 n inst13|inst8~0_combout $end
$var wire 1 o inst4|inst3|inst4~5_combout $end
$var wire 1 p inst|inst22~q $end
$var wire 1 q inst|inst21~q $end
$var wire 1 r inst|inst20~q $end
$var wire 1 s inst|inst19~q $end
$var wire 1 t inst|nome4~q $end
$var wire 1 u inst|inst17~q $end
$var wire 1 v inst|inst16~q $end
$var wire 1 w inst|inst15~q $end
$var wire 1 x inst|inst14~q $end
$var wire 1 y inst|inst13~q $end
$var wire 1 z inst|inst12~q $end
$var wire 1 { inst|inst5~q $end
$var wire 1 | inst|inst11~q $end
$var wire 1 } inst|inst10~q $end
$var wire 1 ~ inst|inst9~q $end
$var wire 1 !! inst|inst8~q $end
$var wire 1 "! inst|inst7~q $end
$var wire 1 #! inst|inst6~q $end
$var wire 1 $! inst|inst4~q $end
$var wire 1 %! inst|inst3~q $end
$var wire 1 &! inst|inst2~q $end
$var wire 1 '! inst|inst1~q $end
$var wire 1 (! inst|nome3~q $end
$var wire 1 )! inst|inst22~0_combout $end
$var wire 1 *! inst|inst21~0_combout $end
$var wire 1 +! inst|inst20~0_combout $end
$var wire 1 ,! inst|inst19~0_combout $end
$var wire 1 -! inst|nome4~0_combout $end
$var wire 1 .! inst|inst17~0_combout $end
$var wire 1 /! inst|inst16~0_combout $end
$var wire 1 0! inst|inst15~0_combout $end
$var wire 1 1! inst|inst14~0_combout $end
$var wire 1 2! inst|inst13~0_combout $end
$var wire 1 3! inst|inst12~0_combout $end
$var wire 1 4! inst|inst5~0_combout $end
$var wire 1 5! inst|inst11~0_combout $end
$var wire 1 6! inst|inst10~0_combout $end
$var wire 1 7! inst|inst9~0_combout $end
$var wire 1 8! inst|inst8~0_combout $end
$var wire 1 9! inst|inst7~0_combout $end
$var wire 1 :! inst|inst6~0_combout $end
$var wire 1 ;! inst|inst4~0_combout $end
$var wire 1 <! inst|inst3~0_combout $end
$var wire 1 =! inst|inst2~0_combout $end
$var wire 1 >! inst|inst1~0_combout $end
$var wire 1 ?! inst|nome3~0_combout $end
$var wire 1 @! clk_in~input_o $end
$var wire 1 A! inst|inst22~feeder_combout $end
$var wire 1 B! inst|inst20~feeder_combout $end
$var wire 1 C! inst|nome4~feeder_combout $end
$var wire 1 D! inst|inst16~feeder_combout $end
$var wire 1 E! inst|inst15~feeder_combout $end
$var wire 1 F! inst|inst14~feeder_combout $end
$var wire 1 G! inst|inst13~feeder_combout $end
$var wire 1 H! inst|inst11~feeder_combout $end
$var wire 1 I! inst|inst9~feeder_combout $end
$var wire 1 J! inst|inst7~feeder_combout $end
$var wire 1 K! inst|inst6~feeder_combout $end
$var wire 1 L! inst|inst4~feeder_combout $end
$var wire 1 M! inst|inst3~feeder_combout $end
$var wire 1 N! inst|inst2~feeder_combout $end
$var wire 1 O! inst|nome3~feeder_combout $end
$var wire 1 P! saida_negativo~output_o $end
$var wire 1 Q! saida_ri[7]~output_o $end
$var wire 1 R! saida_ri[6]~output_o $end
$var wire 1 S! saida_ri[5]~output_o $end
$var wire 1 T! saida_ri[4]~output_o $end
$var wire 1 U! saida_ri[3]~output_o $end
$var wire 1 V! saida_ri[2]~output_o $end
$var wire 1 W! saida_ri[1]~output_o $end
$var wire 1 X! saida_ri[0]~output_o $end
$var wire 1 Y! SAIDA_PC[7]~output_o $end
$var wire 1 Z! SAIDA_PC[6]~output_o $end
$var wire 1 [! SAIDA_PC[5]~output_o $end
$var wire 1 \! SAIDA_PC[4]~output_o $end
$var wire 1 ]! SAIDA_PC[3]~output_o $end
$var wire 1 ^! SAIDA_PC[2]~output_o $end
$var wire 1 _! SAIDA_PC[1]~output_o $end
$var wire 1 `! SAIDA_PC[0]~output_o $end
$var wire 1 a! SAIDA_ACUMULADOR[7]~output_o $end
$var wire 1 b! SAIDA_ACUMULADOR[6]~output_o $end
$var wire 1 c! SAIDA_ACUMULADOR[5]~output_o $end
$var wire 1 d! SAIDA_ACUMULADOR[4]~output_o $end
$var wire 1 e! SAIDA_ACUMULADOR[3]~output_o $end
$var wire 1 f! SAIDA_ACUMULADOR[2]~output_o $end
$var wire 1 g! SAIDA_ACUMULADOR[1]~output_o $end
$var wire 1 h! SAIDA_ACUMULADOR[0]~output_o $end
$var wire 1 i! saida_zero~output_o $end
$var wire 1 j! HLT~output_o $end
$var wire 1 k! display[13]~output_o $end
$var wire 1 l! display[12]~output_o $end
$var wire 1 m! display[11]~output_o $end
$var wire 1 n! display[10]~output_o $end
$var wire 1 o! display[9]~output_o $end
$var wire 1 p! display[8]~output_o $end
$var wire 1 q! display[7]~output_o $end
$var wire 1 r! display[6]~output_o $end
$var wire 1 s! display[5]~output_o $end
$var wire 1 t! display[4]~output_o $end
$var wire 1 u! display[3]~output_o $end
$var wire 1 v! display[2]~output_o $end
$var wire 1 w! display[1]~output_o $end
$var wire 1 x! display[0]~output_o $end
$var wire 1 y! displayPC[13]~output_o $end
$var wire 1 z! displayPC[12]~output_o $end
$var wire 1 {! displayPC[11]~output_o $end
$var wire 1 |! displayPC[10]~output_o $end
$var wire 1 }! displayPC[9]~output_o $end
$var wire 1 ~! displayPC[8]~output_o $end
$var wire 1 !" displayPC[7]~output_o $end
$var wire 1 "" displayPC[6]~output_o $end
$var wire 1 #" displayPC[5]~output_o $end
$var wire 1 $" displayPC[4]~output_o $end
$var wire 1 %" displayPC[3]~output_o $end
$var wire 1 &" displayPC[2]~output_o $end
$var wire 1 '" displayPC[1]~output_o $end
$var wire 1 (" displayPC[0]~output_o $end
$var wire 1 )" switch~input_o $end
$var wire 1 *" botao_passo~input_o $end
$var wire 1 +" inst|inst23~0_combout $end
$var wire 1 ," rst~input_o $end
$var wire 1 -" rst~inputclkctrl_outclk $end
$var wire 1 ." inst|inst23~q $end
$var wire 1 /" inst2|inst|inst2~combout $end
$var wire 1 0" inst2|inst|inst2~clkctrl_outclk $end
$var wire 1 1" inst8|inst11|inst2~0feeder_combout $end
$var wire 1 2" inst8|inst11|inst2~0_q $end
$var wire 1 3" inst8|inst9|inst2~1_q $end
$var wire 1 4" inst4|inst2|inst1|mux121|inst2~0_combout $end
$var wire 1 5" inst8|inst10|inst2~1_q $end
$var wire 1 6" inst1|inst34|inst8~0_combout $end
$var wire 1 7" inst4|inst70|inst2|inst2~0_combout $end
$var wire 1 8" inst4|inst3|inst4~4_combout $end
$var wire 1 9" inst4|inst3|inst4~3_combout $end
$var wire 1 :" inst4|inst2|inst6|inst~0_combout $end
$var wire 1 ;" inst8|inst11|inst2~1_q $end
$var wire 1 <" inst8|inst4|inst2~1_q $end
$var wire 1 =" inst1|inst23~combout $end
$var wire 1 >" inst1|inst6|inst8~combout $end
$var wire 1 ?" inst1|inst32~q $end
$var wire 1 @" inst4|inst70|nome1|inst~0_combout $end
$var wire 1 A" inst4|inst70|inst5|inst8~0_combout $end
$var wire 1 B" inst4|inst70|inst12|inst2~0_combout $end
$var wire 1 C" inst1|inst5|inst8~1_combout $end
$var wire 1 D" inst1|inst3~q $end
$var wire 1 E" inst12|inst99|inst2~0_combout $end
$var wire 1 F" inst4|inst2|inst6|inst~3_combout $end
$var wire 1 G" inst4|inst2|inst1|inst3~0_combout $end
$var wire 1 H" inst4|inst2|inst1|inst3~q $end
$var wire 1 I" inst4|inst70|nome80|inst~0_combout $end
$var wire 1 J" inst4|inst3|inst4~2_combout $end
$var wire 1 K" inst4|inst70|inst5|inst8~2_combout $end
$var wire 1 L" inst4|inst70|nome80|inst~combout $end
$var wire 1 M" inst7|inst6|inst2~q $end
$var wire 1 N" inst1|inst36~combout $end
$var wire 1 O" inst1|inst12|inst8~0_combout $end
$var wire 1 P" inst1|inst7~q $end
$var wire 1 Q" inst12|inst5|inst2~0_combout $end
$var wire 1 R" inst7|inst8|inst2~q $end
$var wire 1 S" inst1|inst42|inst8~0_combout $end
$var wire 1 T" inst1|inst42|inst8~1_combout $end
$var wire 1 U" inst1|inst41~q $end
$var wire 1 V" inst12|inst7|inst2~0_combout $end
$var wire 1 W" inst7|inst9|inst2~q $end
$var wire 1 X" inst1|inst50|inst8~1_combout $end
$var wire 1 Y" inst1|inst49~q $end
$var wire 1 Z" inst12|inst8|inst2~0_combout $end
$var wire 1 [" inst7|inst10|inst2~q $end
$var wire 1 \" inst1|inst45~0_combout $end
$var wire 1 ]" inst1|inst58|inst8~1_combout $end
$var wire 1 ^" inst1|inst58|inst8~2_combout $end
$var wire 1 _" inst1|inst57~q $end
$var wire 1 `" inst12|inst9|inst2~0_combout $end
$var wire 1 a" inst7|inst11|inst2~q $end
$var wire 1 b" inst14|Mux0_rtl_0|auto_generated|ram_block1a5 $end
$var wire 1 c" inst8|inst4|inst2~4_combout $end
$var wire 1 d" inst12|inst4|inst2~0_combout $end
$var wire 1 e" inst7|inst4|inst2~q $end
$var wire 1 f" inst14|Mux0_rtl_0|auto_generated|ram_block1a0~portadataout $end
$var wire 1 g" inst8|inst11|inst2~4_combout $end
$var wire 1 h" inst4|inst2|inst6|inst~1_combout $end
$var wire 1 i" inst9|inst11|inst2~q $end
$var wire 1 j" inst11|inst4~0_combout $end
$var wire 1 k" inst13|inst7|inst4|inst9|inst2~1_combout $end
$var wire 1 l" inst4|inst70|inst11|inst~combout $end
$var wire 1 m" inst5|inst6|inst2~q $end
$var wire 1 n" inst8|inst6|inst2~1_q $end
$var wire 1 o" inst14|Mux0_rtl_0|auto_generated|ram_block1a4 $end
$var wire 1 p" inst8|inst6|inst2~4_combout $end
$var wire 1 q" inst13|inst7|inst2|inst99|inst2~0_combout $end
$var wire 1 r" inst13|inst7|inst4|inst99|inst2~0_combout $end
$var wire 1 s" inst13|inst7|inst4|inst99|inst2~1_combout $end
$var wire 1 t" inst5|inst|inst2~q $end
$var wire 1 u" inst8|inst|inst2~1_q $end
$var wire 1 v" inst14|Mux0_rtl_0|auto_generated|ram_block1a7 $end
$var wire 1 w" inst8|inst|inst2~4_combout $end
$var wire 1 x" inst13|inst7|inst4|inst|inst2~0_combout $end
$var wire 1 y" inst13|inst7|inst2|inst|inst2~0_combout $end
$var wire 1 z" inst13|inst7|inst4|inst|inst2~1_combout $end
$var wire 1 {" inst5|inst4|inst2~q $end
$var wire 1 |" inst13|inst7|inst2|inst4|inst2~0_combout $end
$var wire 1 }" inst8|inst2|inst2~1_q $end
$var wire 1 ~" inst14|Mux0_rtl_0|auto_generated|ram_block1a6 $end
$var wire 1 !# inst8|inst2|inst2~4_combout $end
$var wire 1 "# inst13|inst|inst1|inst2~0_combout $end
$var wire 1 ## inst13|inst7|inst2|inst3|inst2~0_combout $end
$var wire 1 $# inst13|inst7|inst4|inst3|inst2~0_combout $end
$var wire 1 %# inst13|inst7|inst4|inst3|inst2~1_combout $end
$var wire 1 &# inst5|inst2|inst2~q $end
$var wire 1 '# inst13|inst|inst1|inst5~0_combout $end
$var wire 1 (# inst13|inst7|inst4|inst4|inst2~0_combout $end
$var wire 1 )# inst13|inst7|inst4|inst4|inst2~1_combout $end
$var wire 1 *# inst13|inst7|inst4|inst4|inst2~2_combout $end
$var wire 1 +# inst13|inst8~1_combout $end
$var wire 1 ,# inst5|inst10|inst2~q $end
$var wire 1 -# inst13|inst|inst6|inst2~0_combout $end
$var wire 1 .# inst13|inst7|inst2|inst5|inst2~0_combout $end
$var wire 1 /# inst13|inst|inst3|inst5~1_combout $end
$var wire 1 0# inst13|inst|inst3|inst5~2_combout $end
$var wire 1 1# inst13|inst|inst4|inst2~combout $end
$var wire 1 2# inst13|inst7|inst4|inst5|inst2~0_combout $end
$var wire 1 3# inst13|inst7|inst4|inst5|inst2~1_combout $end
$var wire 1 4# inst5|inst8|inst2~q $end
$var wire 1 5# inst13|inst|inst4|inst5~0_combout $end
$var wire 1 6# inst13|inst|inst6|inst2~combout $end
$var wire 1 7# inst13|inst7|inst4|inst8|inst2~0_combout $end
$var wire 1 8# inst13|inst7|inst4|inst8|inst2~1_combout $end
$var wire 1 9# inst13|inst8~combout $end
$var wire 1 :# inst10|inst1|inst2~q $end
$var wire 1 ;# inst4|inst70|inst2|inst4~0_combout $end
$var wire 1 <# inst4|inst70|inst2|inst~combout $end
$var wire 1 =# inst1|inst2~q $end
$var wire 1 ># inst12|inst3|inst2~0_combout $end
$var wire 1 ?# inst7|inst2|inst2~q $end
$var wire 1 @# inst14|Mux0_rtl_0|auto_generated|ram_block1a1 $end
$var wire 1 A# inst8|inst10|inst2~4_combout $end
$var wire 1 B# inst9|inst10|inst2~q $end
$var wire 1 C# inst4|inst70|inst11|inst2~0_combout $end
$var wire 1 D# inst4|inst70|inst5|inst~2_combout $end
$var wire 1 E# inst4|inst70|inst5|inst~3_combout $end
$var wire 1 F# inst8|inst11|inst2~3_q $end
$var wire 1 G# inst8|inst8|inst2~1_q $end
$var wire 1 H# inst14|Mux0_rtl_0|auto_generated|ram_block1a3 $end
$var wire 1 I# inst8|inst8|inst2~4_combout $end
$var wire 1 J# inst9|inst8|inst2~q $end
$var wire 1 K# inst4|inst70|nome1|inst2~0_combout $end
$var wire 1 L# inst4|inst3|inst4~1_combout $end
$var wire 1 M# inst4|inst70|inst13|inst~0_combout $end
$var wire 1 N# inst4|inst70|inst13|inst~1_combout $end
$var wire 1 O# inst4|inst2|inst~q $end
$var wire 1 P# inst4|inst2|inst1|dff1~q $end
$var wire 1 Q# inst4|inst2|inst6|inst~2_combout $end
$var wire 1 R# inst1|inst4|inst8~0_combout $end
$var wire 1 S# inst1|inst4|inst8~1_combout $end
$var wire 1 T# inst1|inst~q $end
$var wire 1 U# inst12|inst|inst2~0_combout $end
$var wire 1 V# inst7|inst|inst2~q $end
$var wire 1 W# inst14|Mux0_rtl_0|auto_generated|ram_block1a2 $end
$var wire 1 X# inst8|inst9|inst2~4_combout $end
$var wire 1 Y# inst9|inst9|inst2~q $end
$var wire 1 Z# inst4|inst3|inst4~0_combout $end
$var wire 1 [# inst4|inst2|inst1|inst4~0_combout $end
$var wire 1 \# inst4|inst2|inst1|inst4~q $end
$var wire 1 ]# inst4|inst70|inst10~combout $end
$var wire 1 ^# inst11|inst2~0_combout $end
$var wire 1 _# inst13|inst7|inst4|inst9|inst2~0_combout $end
$var wire 1 `# inst13|inst7|inst4|inst9|inst2~2_combout $end
$var wire 1 a# inst13|inst|inst5|inst2~combout $end
$var wire 1 b# inst13|inst7|inst4|inst7|inst2~1_combout $end
$var wire 1 c# inst5|inst9|inst2~q $end
$var wire 1 d# inst13|inst|inst5|inst5~0_combout $end
$var wire 1 e# inst13|inst|inst7|inst2~combout $end
$var wire 1 f# inst13|inst7|inst4|inst9|inst2~3_combout $end
$var wire 1 g# inst5|inst11|inst2~q $end
$var wire 1 h# inst9|inst6|inst2~feeder_combout $end
$var wire 1 i# inst9|inst6|inst2~q $end
$var wire 1 j# inst9|inst4|inst2~feeder_combout $end
$var wire 1 k# inst9|inst4|inst2~q $end
$var wire 1 l# inst9|inst2|inst2~feeder_combout $end
$var wire 1 m# inst9|inst2|inst2~q $end
$var wire 1 n# inst9|inst|inst2~feeder_combout $end
$var wire 1 o# inst9|inst|inst2~q $end
$var wire 1 p# inst15|inst6|inst1~0_combout $end
$var wire 1 q# inst15|inst5|inst14~0_combout $end
$var wire 1 r# inst15|inst4|inst7~0_combout $end
$var wire 1 s# inst15|inst3|inst7~0_combout $end
$var wire 1 t# inst15|inst2|inst1~0_combout $end
$var wire 1 u# inst15|inst1|inst3~0_combout $end
$var wire 1 v# inst15|inst|inst4~0_combout $end
$var wire 1 w# inst6|inst6|inst1~0_combout $end
$var wire 1 x# inst6|inst5|inst14~0_combout $end
$var wire 1 y# inst6|inst4|inst7~0_combout $end
$var wire 1 z# inst6|inst3|inst7~0_combout $end
$var wire 1 {# inst6|inst2|inst1~0_combout $end
$var wire 1 |# inst6|inst1|inst3~0_combout $end
$var wire 1 }# inst6|inst|inst4~0_combout $end
$var wire 1 ~# inst17|inst6|inst1~0_combout $end
$var wire 1 !$ inst17|inst5|inst14~0_combout $end
$var wire 1 "$ inst17|inst4|inst7~0_combout $end
$var wire 1 #$ inst17|inst3|inst7~0_combout $end
$var wire 1 $$ inst17|inst2|inst1~0_combout $end
$var wire 1 %$ inst17|inst1|inst3~0_combout $end
$var wire 1 &$ inst17|inst|inst4~0_combout $end
$var wire 1 '$ inst16|inst6|inst1~0_combout $end
$var wire 1 ($ inst16|inst5|inst14~0_combout $end
$var wire 1 )$ inst16|inst4|inst7~0_combout $end
$var wire 1 *$ inst16|inst3|inst7~0_combout $end
$var wire 1 +$ inst16|inst2|inst1~0_combout $end
$var wire 1 ,$ inst16|inst1|inst3~0_combout $end
$var wire 1 -$ inst16|inst|inst4~0_combout $end
$var wire 1 .$ inst14|Mux0_rtl_0|auto_generated|ram_block1a0_PORTADATAOUT_bus [17] $end
$var wire 1 /$ inst14|Mux0_rtl_0|auto_generated|ram_block1a0_PORTADATAOUT_bus [16] $end
$var wire 1 0$ inst14|Mux0_rtl_0|auto_generated|ram_block1a0_PORTADATAOUT_bus [15] $end
$var wire 1 1$ inst14|Mux0_rtl_0|auto_generated|ram_block1a0_PORTADATAOUT_bus [14] $end
$var wire 1 2$ inst14|Mux0_rtl_0|auto_generated|ram_block1a0_PORTADATAOUT_bus [13] $end
$var wire 1 3$ inst14|Mux0_rtl_0|auto_generated|ram_block1a0_PORTADATAOUT_bus [12] $end
$var wire 1 4$ inst14|Mux0_rtl_0|auto_generated|ram_block1a0_PORTADATAOUT_bus [11] $end
$var wire 1 5$ inst14|Mux0_rtl_0|auto_generated|ram_block1a0_PORTADATAOUT_bus [10] $end
$var wire 1 6$ inst14|Mux0_rtl_0|auto_generated|ram_block1a0_PORTADATAOUT_bus [9] $end
$var wire 1 7$ inst14|Mux0_rtl_0|auto_generated|ram_block1a0_PORTADATAOUT_bus [8] $end
$var wire 1 8$ inst14|Mux0_rtl_0|auto_generated|ram_block1a0_PORTADATAOUT_bus [7] $end
$var wire 1 9$ inst14|Mux0_rtl_0|auto_generated|ram_block1a0_PORTADATAOUT_bus [6] $end
$var wire 1 :$ inst14|Mux0_rtl_0|auto_generated|ram_block1a0_PORTADATAOUT_bus [5] $end
$var wire 1 ;$ inst14|Mux0_rtl_0|auto_generated|ram_block1a0_PORTADATAOUT_bus [4] $end
$var wire 1 <$ inst14|Mux0_rtl_0|auto_generated|ram_block1a0_PORTADATAOUT_bus [3] $end
$var wire 1 =$ inst14|Mux0_rtl_0|auto_generated|ram_block1a0_PORTADATAOUT_bus [2] $end
$var wire 1 >$ inst14|Mux0_rtl_0|auto_generated|ram_block1a0_PORTADATAOUT_bus [1] $end
$var wire 1 ?$ inst14|Mux0_rtl_0|auto_generated|ram_block1a0_PORTADATAOUT_bus [0] $end
$upscope $end
$upscope $end
$enddefinitions $end
#0
$dumpvars
0!
x"
1#
1$
02
01
00
0/
0.
0-
1,
0+
0*
0)
0(
0'
0&
1%
0@
0?
0>
0=
0<
0;
1:
09
08
07
06
05
04
13
0A
0I
0H
0G
0F
0E
0D
0C
0B
0J
0R
0Q
0P
0O
0N
0M
0L
0K
0Z
0Y
0X
0W
0V
0U
0T
0S
0[
x\
0]
1^
x_
1`
1a
1b
0c
0d
0e
0f
0g
1h
0i
0j
0k
0l
0m
0n
1o
0p
0q
0r
0s
0t
0u
0v
0w
0x
0y
0z
0{
0|
0}
0~
0!!
0"!
0#!
0$!
0%!
0&!
0'!
0(!
1)!
1*!
1+!
1,!
1-!
1.!
1/!
10!
11!
12!
13!
14!
15!
16!
17!
18!
19!
1:!
1;!
1<!
1=!
1>!
1?!
x@!
1A!
1B!
1C!
1D!
1E!
1F!
1G!
1H!
1I!
1J!
1K!
1L!
1M!
1N!
1O!
0P!
0Q!
0R!
0S!
0T!
0U!
0V!
0W!
0X!
0Y!
0Z!
0[!
0\!
0]!
0^!
0_!
0`!
0a!
0b!
0c!
0d!
0e!
0f!
0g!
0h!
0i!
0j!
1k!
0l!
0m!
0n!
0o!
0p!
0q!
1r!
0s!
0t!
0u!
0v!
0w!
0x!
1y!
0z!
0{!
0|!
0}!
0~!
0!"
1""
0#"
0$"
0%"
0&"
0'"
0("
1)"
0*"
1+"
1,"
1-"
0."
0/"
00"
11"
02"
03"
14"
05"
06"
07"
08"
09"
0:"
0;"
0<"
0="
0>"
0?"
0@"
1A"
0B"
0C"
0D"
0E"
0F"
0G"
0H"
1I"
0J"
0K"
1L"
0M"
1N"
0O"
0P"
0Q"
0R"
1S"
0T"
0U"
0V"
0W"
0X"
0Y"
0Z"
0["
1\"
1]"
0^"
0_"
0`"
0a"
0b"
0c"
0d"
0e"
0f"
0g"
0h"
0i"
0j"
0k"
0l"
0m"
0n"
0o"
0p"
0q"
0r"
0s"
0t"
0u"
0v"
0w"
0x"
0y"
0z"
0{"
0|"
0}"
0~"
0!#
0"#
0##
0$#
0%#
0&#
0'#
1(#
0)#
0*#
0+#
0,#
0-#
0.#
0/#
00#
01#
02#
03#
04#
05#
06#
07#
08#
19#
0:#
1;#
0<#
0=#
0>#
0?#
0@#
0A#
0B#
0C#
0D#
0E#
0F#
0G#
0H#
0I#
0J#
0K#
0L#
0M#
0N#
0O#
0P#
0Q#
1R#
0S#
0T#
0U#
0V#
0W#
0X#
0Y#
0Z#
0[#
0\#
0]#
0^#
0_#
0`#
0a#
0b#
0c#
0d#
0e#
0f#
0g#
0h#
0i#
0j#
0k#
0l#
0m#
0n#
0o#
1p#
0q#
0r#
0s#
0t#
0u#
0v#
1w#
0x#
0y#
0z#
0{#
0|#
0}#
1~#
0!$
0"$
0#$
0$$
0%$
0&$
1'$
0($
0)$
0*$
0+$
0,$
0-$
0?$
0>$
0=$
0<$
0;$
0:$
09$
08$
07$
06$
05$
04$
03$
02$
01$
00$
0/$
0.$
$end
#5000
1!
1*"
0\
1/"
10"
1P#
1Q#
1E#
0I"
1G"
04"
1S#
1<#
0L"
#5001
1=$
1W#
#10000
0#
0!
0,"
0*"
0-"
1\
0/"
00"
#15000
1!
1*"
0\
1/"
10"
1T#
0P#
1F#
1H"
12"
0S#
0\"
16"
1i
0Q#
0E#
1h"
14"
1X#
1U#
0]"
0S"
0h
1S#
0<#
1a#
1l
1`!
1R
1-$
1*$
1)$
1($
1b#
1("
1%"
1$"
1#"
1@
1=
1<
1;
1n
09#
#20000
0!
0*"
1\
0/"
00"
#25000
1!
1*"
0\
1/"
10"
1P#
0F#
13"
1Y#
1[#
0h"
0G"
1F"
04"
1K#
1C#
0o
1f
1S!
1U
1D#
1K"
1L"
#30000
0!
0*"
1\
0/"
00"
#35000
1!
1*"
0\
1/"
10"
1\#
1V#
0P#
0H"
1E#
0F"
17"
14"
0R#
1<#
0L"
0S#
#40000
0!
0*"
1\
0/"
00"
#45000
1!
1*"
0\
1/"
10"
0T#
1P#
1F#
1=#
1S#
0E#
1I"
1G"
1@"
07"
04"
0U#
1>#
1L"
1R#
0<#
0`!
1_!
0R
1Q
0>#
1V"
0-$
1+$
0*$
0)$
0'$
0S#
0_!
1[!
0("
1&"
0%"
0$"
0""
0Q
1M
0@
1>
0=
0<
0:
0+$
0($
1'$
1$$
1!$
0~#
0&"
0#"
1""
1}!
1z!
0y!
0>
0;
1:
17
14
03
#45001
1?$
0=$
1f"
0W#
1g"
0X#
1`#
1d
0a#
0l
1`"
0V"
1f#
1e#
0b#
1Y!
0[!
1K
0M
0$$
0!$
0n
0}!
0z!
07
04
#50000
0!
0*"
1\
0/"
00"
#55000
1!
1*"
0\
1/"
10"
0V#
0P#
0F#
1a"
1H"
1;"
03"
1E#
0I"
0@"
14"
0L"
1>#
0`"
1_!
0Y!
1Q
0K
1+$
1($
0'$
1~#
1&"
1#"
0""
1y!
1>
1;
0:
13
#60000
0!
0*"
1\
0/"
00"
#65000
1!
1*"
0\
1/"
10"
1P#
1F#
0[#
0E#
0G"
1:"
04"
1N#
1l"
#65001
0?$
1;$
19$
0f"
1o"
1~"
0g"
1p"
1!#
0`#
0d
1h#
1/#
1r"
1m
1l#
1$#
1"#
0f#
0e#
1s"
1%#
19#
1+#
09#
#70000
0!
0*"
1\
0/"
00"
#75000
1!
1*"
0\
1/"
10"
0\#
0P#
0F#
1}"
1n"
0H"
0;"
1&#
1m"
1I"
0:"
14"
1'#
1##
0"#
1q"
1c
1g!
1e!
1H
1F
1z#
0w#
1L"
0N#
0l"
11#
1u!
0r!
1/
0,
#80000
0!
0*"
1\
0/"
00"
#85000
1!
1*"
0\
1/"
10"
1P#
1?#
0a"
1Q#
1E#
0I"
1G"
04"
1S#
1<#
0L"
#90000
0!
0*"
1\
0/"
00"
#95000
1!
1*"
0\
1/"
10"
1T#
0P#
1F#
1H"
0S#
1="
06"
0Q#
0E#
1h"
14"
1U#
1>"
1S#
0<#
1`!
1R
0+$
1)$
0>"
0&"
1$"
0>
1<
#95001
1>$
1=$
0;$
09$
1@#
1W#
0o"
0~"
1A#
1X#
0p"
0!#
17#
1-#
1a#
1l
0h#
0r"
0q"
0m
0c
0l#
0'#
0$#
0##
1"#
18#
16#
1b#
0s"
01#
0%#
1n
0+#
#100000
0!
0*"
1\
0/"
00"
#105000
1!
1*"
0\
1/"
10"
1P#
0F#
0}"
0n"
15"
13"
1B#
1[#
0h"
0G"
1F"
04"
1L#
0K#
0C#
0f
1R!
1T
1M#
1L"
1]#
0D#
0K"
1N#
1_#
1l"
0L"
07#
1)#
1k"
0l
08#
1*#
1`#
17#
12#
1%#
1$#
1x"
1s"
1r"
1l
1+#
1f#
18#
13#
0%#
1z"
0s"
#110000
0!
0*"
1\
0/"
00"
#115000
1!
1*"
0\
1/"
10"
1\#
0P#
0H"
1g#
1c#
14#
1,#
0&#
1{"
1t"
0m"
0]#
0F"
14"
0f#
1d
1d#
0b#
0a#
06#
1k
03#
11#
1e#
08#
0-#
1j
1%#
0"#
0*#
0z"
0/#
1s"
1a!
1P!
1c!
1d!
1b!
0g!
1f!
1h!
0e!
1B
1J
1D
1E
1C
0H
1G
1I
0F
1u#
1t#
1s#
0p#
1|#
0z#
1y#
0_#
0)#
0l"
0k"
0M#
0e#
0n
16#
1p!
1o!
1n!
0k!
1w!
0u!
1t!
1*
1)
1(
0%
11
0/
1.
0`#
18#
13#
02#
0$#
1z"
0x"
0r"
1f#
1b#
0N#
0f#
1n
03#
0%#
0z"
0s"
0+#
#120000
0!
0*"
1\
0/"
00"
