LAB06/SYNC_COUNTER/simulation/qsim/SYNC_COUNTER.msim.vcd
$comment
	File created using the following command:
		vcd file SYNC_COUNTER.msim.vcd -direction
$end
$date
	Fri Feb 02 15:26:19 2024
$end
$version
	ModelSim Version 10.1d
$end
$timescale
	1ps
$end
$scope module SYNC_COUNTER_vlg_vec_tst $end
$var reg 1 ! clock $end
$var reg 8 " D [7:0] $end
$var reg 1 # enable $end
$var reg 2 $ sel [1:0] $end
$var wire 1 % S [7] $end
$var wire 1 & S [6] $end
$var wire 1 ' S [5] $end
$var wire 1 ( S [4] $end
$var wire 1 ) S [3] $end
$var wire 1 * S [2] $end
$var wire 1 + S [1] $end
$var wire 1 , S [0] $end
$var wire 1 - sampler $end
$scope module i1 $end
$var wire 1 . gnd $end
$var wire 1 / vcc $end
$var wire 1 0 unknown $end
$var tri1 1 1 devclrn $end
$var tri1 1 2 devpor $end
$var tri1 1 3 devoe $end
$var wire 1 4 inst61~combout $end
$var wire 1 5 inst5|inst8~0_combout $end
$var wire 1 6 inst24~combout $end
$var wire 1 7 D[3]~input_o $end
$var wire 1 8 D[2]~input_o $end
$var wire 1 9 S[7]~output_o $end
$var wire 1 : S[6]~output_o $end
$var wire 1 ; S[5]~output_o $end
$var wire 1 < S[4]~output_o $end
$var wire 1 = S[3]~output_o $end
$var wire 1 > S[2]~output_o $end
$var wire 1 ? S[1]~output_o $end
$var wire 1 @ S[0]~output_o $end
$var wire 1 A clock~input_o $end
$var wire 1 B clock~inputclkctrl_outclk $end
$var wire 1 C sel[1]~input_o $end
$var wire 1 D sel[0]~input_o $end
$var wire 1 E inst6|inst2~0_combout $end
$var wire 1 F D[7]~input_o $end
$var wire 1 G inst58|inst8~0_combout $end
$var wire 1 H D[5]~input_o $end
$var wire 1 I inst42|inst8~0_combout $end
$var wire 1 J inst6|inst3~0_combout $end
$var wire 1 K D[0]~input_o $end
$var wire 1 L inst4|inst8~0_combout $end
$var wire 1 M inst~_wirecell_combout $end
$var wire 1 N enable~input_o $end
$var wire 1 O enable~inputclkctrl_outclk $end
$var wire 1 P inst~q $end
$var wire 1 Q D[1]~input_o $end
$var wire 1 R inst34|inst8~0_combout $end
$var wire 1 S inst34|inst8~1_combout $end
$var wire 1 T inst2~q $end
$var wire 1 U inst6|inst8~0_combout $end
$var wire 1 V inst6|inst3~combout $end
$var wire 1 W inst6|inst8~1_combout $end
$var wire 1 X inst32~q $end
$var wire 1 Y inst37~combout $end
$var wire 1 Z D[4]~input_o $end
$var wire 1 [ inst12|inst8~0_combout $end
$var wire 1 \ inst36~combout $end
$var wire 1 ] inst12|inst8~1_combout $end
$var wire 1 ^ inst12|inst8~2_combout $end
$var wire 1 _ inst7~q $end
$var wire 1 ` inst42|inst3~combout $end
$var wire 1 a inst42|inst2~combout $end
$var wire 1 b inst42|inst8~1_combout $end
$var wire 1 c inst41~q $end
$var wire 1 d D[6]~input_o $end
$var wire 1 e inst50|inst8~0_combout $end
$var wire 1 f inst56~combout $end
$var wire 1 g inst52~combout $end
$var wire 1 h inst50|inst3~combout $end
$var wire 1 i inst50|inst8~1_combout $end
$var wire 1 j inst49~q $end
$var wire 1 k inst60~combout $end
$var wire 1 l inst58|inst8~1_combout $end
$var wire 1 m inst58|inst8~2_combout $end
$var wire 1 n inst57~q $end
$var wire 1 o inst31~combout $end
$var wire 1 p inst27~combout $end
$var wire 1 q inst5|inst3~combout $end
$var wire 1 r inst5|inst8~1_combout $end
$var wire 1 s inst3~q $end
$upscope $end
$upscope $end
$enddefinitions $end
#0
$dumpvars
0!
b0 "
1#
b10 $
0,
0+
0*
0)
0(
0'
0&
0%
x-
0.
1/
x0
11
12
13
04
05
06
07
08
09
0:
0;
0<
0=
0>
0?
0@
0A
0B
1C
0D
0E
0F
0G
0H
0I
1J
0K
0L
1M
1N
1O
0P
0Q
0R
0S
0T
0U
0V
0W
0X
0Y
0Z
0[
0\
0]
0^
0_
0`
0a
0b
0c
0d
0e
0f
0g
0h
0i
0j
0k
0l
0m
0n
0o
0p
0q
0r
0s
$end
#25000
1!
1A
1B
0-
1P
1o
1Y
1R
0M
16
1@
1,
1f
14
1S
#50000
0!
0A
0B
1-
#75000
1!
1A
1B
0-
1T
0P
1M
1?
0@
1+
0,
#100000
0!
0A
0B
1-
#125000
1!
1A
1B
0-
1P
1V
0R
0M
1@
1,
1W
0S
#150000
0!
0A
0B
1-
#175000
1!
1A
1B
0-
1X
0T
0P
1M
1>
0?
0@
1*
0+
0,
#200000
0!
0A
0B
1-
#225000
1!
1A
1B
0-
1P
1R
0M
06
1@
1,
1S
#250000
0!
0A
0B
1-
#275000
1!
1A
1B
0-
1T
0P
1M
1?
0@
1+
0,
#300000
0!
0A
0B
1-
#325000
1!
1A
1B
0-
1P
1p
0V
0R
0M
1@
1,
1q
0W
0S
1r
#350000
0!
0A
0B
1-
#375000
1!
1A
1B
0-
1s
0X
0T
0P
0q
0p
1M
1=
0>
0?
0@
1)
0*
0+
0,
0r
1q
1r
#400000
0!
0A
0B
1-
#425000
1!
1A
1B
0-
1P
0o
1R
0M
16
1@
1,
1S
#450000
0!
0A
0B
1-
#475000
1!
1A
1B
0-
1T
0P
1M
1?
0@
1+
0,
#500000
0!
0A
0B
1-
#525000
1!
1A
1B
0-
1P
1V
0R
0M
1@
1,
1W
0S
#550000
0!
0A
0B
1-
#575000
1!
1A
1B
0-
1X
0T
0P
1M
1>
0?
0@
1*
0+
0,
#600000
0!
0A
0B
1-
#625000
1!
1A
1B
0-
1P
1R
0M
06
1@
1,
1S
#650000
0!
0A
0B
1-
#675000
1!
1A
1B
0-
1T
0P
1M
1?
0@
1+
0,
#700000
0!
0A
0B
1-
#725000
1!
1A
1B
0-
1P
1p
1\
0V
0R
0M
1@
1,
0q
1]
0W
0S
0r
1^
#750000
0!
0A
0B
1-
#775000
1!
1A
1B
0-
0s
1_
0X
0T
0P
1q
0\
0Y
1`
0]
0p
1M
0=
1<
0>
0?
0@
0)
1(
0*
0+
0,
1r
0`
1]
0^
1b
0q
0b
1^
0r
#800000
0!
0A
0B
1-
#825000
1!
1A
1B
0-
1P
1o
1Y
1R
0M
16
1@
1,
1S
#850000
0!
0A
0B
1-
#875000
1!
1A
1B
0-
1T
0P
1M
1?
0@
1+
0,
#900000
0!
0A
0B
1-
#925000
1!
1A
1B
0-
1P
1V
0R
0M
1@
1,
1W
0S
#950000
0!
0A
0B
1-
#975000
1!
1A
1B
0-
1X
0T
0P
1M
1>
0?
0@
1*
0+
0,
