LAB04/DISPLAY/simulation/qsim/DISPLAY.msim.vcd
$comment
	File created using the following command:
		vcd file DISPLAY.msim.vcd -direction
$end
$date
	Wed Dec 06 18:40:49 2023
$end
$version
	ModelSim Version 10.1d
$end
$timescale
	1ps
$end
$scope module DISPLAY_vlg_vec_tst $end
$var reg 4 ! BCD [3:0] $end
$var wire 1 " A $end
$var wire 1 # B $end
$var wire 1 $ C $end
$var wire 1 % D $end
$var wire 1 & E $end
$var wire 1 ' F $end
$var wire 1 ( G $end
$var wire 1 ) sampler $end
$scope module i1 $end
$var wire 1 * gnd $end
$var wire 1 + vcc $end
$var wire 1 , unknown $end
$var tri1 1 - devclrn $end
$var tri1 1 . devpor $end
$var tri1 1 / devoe $end
$var wire 1 0 A~output_o $end
$var wire 1 1 B~output_o $end
$var wire 1 2 C~output_o $end
$var wire 1 3 D~output_o $end
$var wire 1 4 E~output_o $end
$var wire 1 5 F~output_o $end
$var wire 1 6 G~output_o $end
$var wire 1 7 BCD[0]~input_o $end
$var wire 1 8 BCD[3]~input_o $end
$var wire 1 9 BCD[2]~input_o $end
$var wire 1 : BCD[1]~input_o $end
$var wire 1 ; inst|inst4~0_combout $end
$var wire 1 < inst1|inst3~0_combout $end
$var wire 1 = inst2|inst1~0_combout $end
$var wire 1 > inst3|inst7~0_combout $end
$var wire 1 ? inst4|inst7~0_combout $end
$var wire 1 @ inst5|inst14~0_combout $end
$var wire 1 A inst6|inst1~0_combout $end
$upscope $end
$upscope $end
$enddefinitions $end
#0
$dumpvars
b0 !
0"
0#
0$
0%
0&
0'
1(
x)
0*
1+
x,
1-
1.
1/
00
01
02
03
04
05
16
07
08
09
0:
0;
0<
0=
0>
0?
0@
1A
$end
#50000
b1 !
17
0)
1@
1?
1>
1;
15
14
13
10
1'
1&
1%
1"
#100000
b11 !
b10 !
07
1:
1)
0A
0?
0>
1=
0;
06
04
03
12
00
0(
0&
0%
1$
0"
#150000
b11 !
17
0)
1?
0=
14
02
1&
0$
#200000
b111 !
b101 !
b100 !
07
0:
19
1)
0@
1>
1;
05
13
10
0'
1%
1"
#250000
b101 !
17
0)
0>
1<
0;
03
11
00
0%
1#
0"
#300000
b111 !
b110 !
07
1:
1)
0?
04
0&
#350000
b111 !
17
0)
1A
1@
1?
1>
0<
16
15
14
13
01
1(
1'
1&
1%
0#
#400000
b1111 !
b1011 !
b1001 !
b1000 !
07
0:
09
18
1)
0A
0@
0?
0>
06
05
04
03
0(
0'
0&
0%
#450000
b1001 !
17
0)
1?
14
1&
#500000
b1011 !
b1010 !
07
1:
1)
0?
1>
04
13
0&
1%
#550000
b1011 !
17
0)
0>
1<
1;
03
11
10
0%
1#
1"
#600000
b1111 !
b1101 !
b1100 !
07
0:
19
1)
1A
1=
0;
16
12
00
1(
1$
0"
#650000
b1101 !
17
0)
0A
1@
0=
0<
1;
06
15
02
01
10
0(
1'
0$
0#
1"
#700000
b1111 !
b1110 !
07
1:
1)
0@
1=
1<
0;
05
12
11
00
0'
1$
1#
0"
#750000
b1111 !
17
0)
1>
13
1%
#800000
b111 !
b11 !
b1 !
b0 !
07
0:
09
08
1)
1A
0>
0=
0<
16
03
02
01
1(
0%
0$
0#
#850000
b1 !
17
0)
1@
1?
1>
1;
15
14
13
10
1'
1&
1%
1"
#900000
b11 !
b10 !
07
1:
1)
0A
0?
0>
1=
0;
06
04
03
12
00
0(
0&
0%
1$
0"
#950000
b11 !
17
0)
1?
0=
14
02
1&
0$
#990000
b1 !
b0 !
07
0:
1)
1A
0@
0?
16
05
04
1(
0'
0&
